[
    {
        "Base clire": "C:/OneDrive/Enel Spa/Ciclo Comercial Rio - 2024/Scripts Bancos/Recorte_Acu/Bases/Acumulado/",
        "Base Dinamico": "C:/OneDrive/Enel Spa/Leitura e Cr\u00edtica - Documentos/Extracoes/Sem Contrato/Hist_Dinamico/",
        "Base FAT": "C:/Users/BR0132670617/Desktop/DXP Files/"
    },
    {
        "Base clire": "clire",
        "Base Dinamico": "dinamico_202401",
        "Base FAT": "FAT"
    },
    {
        "excel": false
    },
    {
        "log": false
    },
    {
        "orc": false
    },
    {
        "del": false
    },
    {
        "risco": false
    }
]